<svg width="16" height="19" viewBox="0 0 16 19" fill="none" xmlns="http://www.w3.org/2000/svg">
<path d="M9.60453 1.59339C9.81592 0.52837 10.8838 -0.169215 11.9875 0.0357292C13.092 0.240889 13.8149 1.26906 13.6024 2.33472C13.3906 3.39888 12.324 4.09668 11.2197 3.89195C10.1151 3.68679 9.39202 2.65798 9.60453 1.59339ZM4.64039 14.1131L1.01209 14.4107C0.398697 14.4656 -0.0526903 14.9906 0.00496208 15.5826C0.0621675 16.1752 0.606513 16.6101 1.22058 16.5545L5.23457 16.2261C5.29624 16.2205 5.35546 16.2067 5.41289 16.1927C5.78629 16.1703 6.1398 15.9718 6.33019 15.63L7.80658 12.9866L5.91455 11.8328L4.64039 14.1131ZM15.9405 6.53338C15.7559 6.04785 15.1975 5.79894 14.6945 5.97738L12.4561 6.76181L11.5088 5.61038C11.5202 4.96387 11.1506 4.33761 10.5062 4.03871C10.0289 3.81782 9.50062 3.82277 9.04811 4.00746L6.39521 3.55016C6.3094 3.53572 6.22516 3.53615 6.1427 3.54305C5.91388 3.52366 5.67791 3.57839 5.47925 3.72063L3.01964 5.47289C2.58949 5.78084 2.50033 6.36809 2.81965 6.78315C3.13964 7.19799 3.74745 7.28398 4.17872 6.97602L6.3322 5.44164L7.71183 5.6802L6.03589 8.95715C5.96684 9.09529 5.85601 9.41962 5.84036 9.44203C5.49199 9.93338 5.62316 10.6034 6.13265 10.9385L6.33801 11.0734L8.1916 12.2966L11.0137 14.1583L12.5651 18.3042C12.7835 18.861 13.4277 19.141 14.0047 18.9294C14.581 18.718 14.8712 18.0967 14.6518 17.5398L13.0252 13.1899C12.9551 13.0129 12.8393 12.8675 12.6997 12.7541C12.6228 12.6451 12.5262 12.5466 12.4067 12.4679L9.25437 10.3892L10.6753 7.61068L11.2575 8.31796C11.3055 8.37572 11.36 8.42442 11.4177 8.4686C11.6738 8.75867 12.0965 8.88172 12.4898 8.74358L15.3628 7.73503C15.8667 7.55638 16.1248 7.01891 15.9405 6.53338Z" fill="#3683FC"/>
</svg>
